<svg width="184" height="54" viewBox="0 0 184 54" fill="none" xmlns="http://www.w3.org/2000/svg">
<path d="M78.428 46V34.253H85.483V35.46H79.788V39.982H84.599V41.189H79.788V46H78.428ZM89.0252 46.17C88.2432 46.17 87.6482 45.949 87.2402 45.507C86.8322 45.065 86.6282 44.419 86.6282 43.569C86.6282 43.0137 86.7246 42.5603 86.9172 42.209C87.1099 41.8577 87.3989 41.5913 87.7842 41.41C88.1809 41.2173 88.6682 41.0983 89.2462 41.053L91.8642 40.798V40.067C91.8642 39.489 91.7339 39.081 91.4732 38.843C91.2239 38.605 90.8499 38.486 90.3512 38.486C90.0679 38.486 89.7279 38.4973 89.3312 38.52C88.9459 38.5427 88.5606 38.571 88.1752 38.605C87.7899 38.639 87.4499 38.673 87.1552 38.707L87.0872 37.704C87.3592 37.6473 87.6879 37.5907 88.0732 37.534C88.4586 37.4773 88.8609 37.432 89.2802 37.398C89.6996 37.3527 90.0849 37.33 90.4362 37.33C91.0822 37.33 91.6092 37.432 92.0172 37.636C92.4252 37.8287 92.7199 38.129 92.9012 38.537C93.0939 38.9337 93.1902 39.4437 93.1902 40.067V44.368C93.2129 44.6173 93.3092 44.7987 93.4792 44.912C93.6606 45.0253 93.8872 45.099 94.1592 45.133L94.1082 46.17C93.8589 46.17 93.6322 46.153 93.4282 46.119C93.2242 46.0963 93.0316 46.0567 92.8502 46C92.7029 45.9433 92.5612 45.8753 92.4252 45.796C92.3006 45.7167 92.1759 45.6203 92.0512 45.507C91.8359 45.5977 91.5582 45.694 91.2182 45.796C90.8896 45.898 90.5326 45.983 90.1472 46.051C89.7732 46.1303 89.3992 46.17 89.0252 46.17ZM89.2462 45.065C89.5522 45.065 89.8696 45.0367 90.1982 44.98C90.5269 44.9233 90.8386 44.8553 91.1332 44.776C91.4279 44.6967 91.6716 44.623 91.8642 44.555V41.784L89.3992 42.022C88.8892 42.0673 88.5209 42.2147 88.2942 42.464C88.0789 42.7133 87.9712 43.0703 87.9712 43.535C87.9712 44.011 88.0789 44.385 88.2942 44.657C88.5096 44.929 88.8269 45.065 89.2462 45.065ZM95.7054 46V37.5H97.0144V38.639C97.2298 38.4917 97.5018 38.333 97.8304 38.163C98.1591 37.9817 98.5218 37.8117 98.9184 37.653C99.3151 37.4943 99.7118 37.381 100.108 37.313V38.656C99.7231 38.7353 99.3321 38.843 98.9354 38.979C98.5388 39.1037 98.1704 39.2397 97.8304 39.387C97.5018 39.5343 97.2298 39.6647 97.0144 39.778V46H95.7054ZM104.88 49.995C103.996 49.995 103.282 49.9157 102.738 49.757C102.205 49.6097 101.814 49.349 101.565 48.975C101.327 48.601 101.208 48.091 101.208 47.445C101.208 47.1163 101.259 46.833 101.361 46.595C101.463 46.3683 101.61 46.1587 101.803 45.966C102.007 45.762 102.256 45.5523 102.551 45.337C102.404 45.2237 102.285 45.065 102.194 44.861C102.115 44.6457 102.075 44.4077 102.075 44.147C102.075 44.0223 102.137 43.824 102.262 43.552C102.398 43.2687 102.528 43.0193 102.653 42.804C102.415 42.6907 102.194 42.5377 101.99 42.345C101.797 42.141 101.639 41.869 101.514 41.529C101.389 41.189 101.327 40.7583 101.327 40.237C101.327 39.1943 101.622 38.452 102.211 38.01C102.8 37.5567 103.565 37.33 104.506 37.33C104.812 37.33 105.135 37.3527 105.475 37.398C105.815 37.4433 106.081 37.4943 106.274 37.551L108.807 37.483V38.605L107.209 38.571C107.368 38.7297 107.498 38.9393 107.6 39.2C107.713 39.4607 107.77 39.8063 107.77 40.237C107.77 40.9737 107.645 41.5517 107.396 41.971C107.147 42.3903 106.778 42.685 106.291 42.855C105.804 43.025 105.192 43.11 104.455 43.11C104.376 43.11 104.24 43.1043 104.047 43.093C103.866 43.0703 103.73 43.0533 103.639 43.042C103.571 43.2007 103.503 43.382 103.435 43.586C103.367 43.79 103.333 43.9317 103.333 44.011C103.333 44.2263 103.373 44.3907 103.452 44.504C103.531 44.6173 103.713 44.691 103.996 44.725C104.291 44.759 104.75 44.776 105.373 44.776C106.189 44.776 106.841 44.844 107.328 44.98C107.815 45.116 108.161 45.3653 108.365 45.728C108.58 46.0793 108.688 46.595 108.688 47.275C108.688 48.2383 108.354 48.9297 107.685 49.349C107.016 49.7797 106.081 49.995 104.88 49.995ZM104.897 48.873C105.736 48.873 106.353 48.754 106.75 48.516C107.147 48.278 107.345 47.887 107.345 47.343C107.345 46.9237 107.277 46.612 107.141 46.408C107.016 46.2153 106.801 46.085 106.495 46.017C106.189 45.9603 105.781 45.932 105.271 45.932C105.169 45.932 105.027 45.932 104.846 45.932C104.665 45.9207 104.478 45.915 104.285 45.915C104.092 45.9037 103.917 45.8923 103.758 45.881C103.611 45.8697 103.509 45.864 103.452 45.864C103.101 46.1133 102.857 46.3343 102.721 46.527C102.585 46.731 102.517 46.9973 102.517 47.326C102.517 47.7 102.585 48.0003 102.721 48.227C102.857 48.4537 103.095 48.618 103.435 48.72C103.786 48.822 104.274 48.873 104.897 48.873ZM104.506 42.056C105.209 42.056 105.707 41.92 106.002 41.648C106.297 41.3647 106.444 40.8943 106.444 40.237C106.444 39.5797 106.297 39.1093 106.002 38.826C105.707 38.5427 105.209 38.401 104.506 38.401C103.849 38.401 103.373 38.5427 103.078 38.826C102.795 39.1093 102.653 39.5797 102.653 40.237C102.653 40.8943 102.795 41.3647 103.078 41.648C103.373 41.92 103.849 42.056 104.506 42.056ZM110.348 46V33.811H111.657V37.959C111.952 37.823 112.343 37.687 112.83 37.551C113.329 37.4037 113.805 37.33 114.258 37.33C115.04 37.33 115.635 37.4717 116.043 37.755C116.462 38.027 116.746 38.469 116.893 39.081C117.052 39.693 117.131 40.4977 117.131 41.495V46H115.805V41.546C115.805 40.8093 115.76 40.22 115.669 39.778C115.59 39.336 115.425 39.0187 115.176 38.826C114.927 38.622 114.541 38.52 114.02 38.52C113.589 38.52 113.153 38.5767 112.711 38.69C112.269 38.8033 111.918 38.911 111.657 39.013V46H110.348ZM121.348 46.17C120.566 46.17 119.971 45.949 119.563 45.507C119.155 45.065 118.951 44.419 118.951 43.569C118.951 43.0137 119.048 42.5603 119.24 42.209C119.433 41.8577 119.722 41.5913 120.107 41.41C120.504 41.2173 120.991 41.0983 121.569 41.053L124.187 40.798V40.067C124.187 39.489 124.057 39.081 123.796 38.843C123.547 38.605 123.173 38.486 122.674 38.486C122.391 38.486 122.051 38.4973 121.654 38.52C121.269 38.5427 120.884 38.571 120.498 38.605C120.113 38.639 119.773 38.673 119.478 38.707L119.41 37.704C119.682 37.6473 120.011 37.5907 120.396 37.534C120.782 37.4773 121.184 37.432 121.603 37.398C122.023 37.3527 122.408 37.33 122.759 37.33C123.405 37.33 123.932 37.432 124.34 37.636C124.748 37.8287 125.043 38.129 125.224 38.537C125.417 38.9337 125.513 39.4437 125.513 40.067V44.368C125.536 44.6173 125.632 44.7987 125.802 44.912C125.984 45.0253 126.21 45.099 126.482 45.133L126.431 46.17C126.182 46.17 125.955 46.153 125.751 46.119C125.547 46.0963 125.355 46.0567 125.173 46C125.026 45.9433 124.884 45.8753 124.748 45.796C124.624 45.7167 124.499 45.6203 124.374 45.507C124.159 45.5977 123.881 45.694 123.541 45.796C123.213 45.898 122.856 45.983 122.47 46.051C122.096 46.1303 121.722 46.17 121.348 46.17ZM121.569 45.065C121.875 45.065 122.193 45.0367 122.521 44.98C122.85 44.9233 123.162 44.8553 123.456 44.776C123.751 44.6967 123.995 44.623 124.187 44.555V41.784L121.722 42.022C121.212 42.0673 120.844 42.2147 120.617 42.464C120.402 42.7133 120.294 43.0703 120.294 43.535C120.294 44.011 120.402 44.385 120.617 44.657C120.833 44.929 121.15 45.065 121.569 45.065ZM128.131 46V33.811H129.44V46H128.131ZM133.764 49.757L134.869 46H133.594L131.197 37.5H132.523L134.597 44.861H135.175L137.266 37.5H138.592L135.09 49.757H133.764ZM144.17 46V34.253H148.369C149.231 34.253 149.945 34.3947 150.511 34.678C151.078 34.95 151.526 35.341 151.854 35.851C152.183 36.3497 152.415 36.9503 152.551 37.653C152.687 38.3443 152.755 39.1093 152.755 39.948C152.755 40.798 152.687 41.5913 152.551 42.328C152.427 43.0533 152.2 43.6937 151.871 44.249C151.543 44.8043 151.095 45.235 150.528 45.541C149.962 45.847 149.242 46 148.369 46H144.17ZM145.53 44.793H148.369C148.981 44.793 149.48 44.6627 149.865 44.402C150.251 44.1413 150.551 43.7843 150.766 43.331C150.982 42.8777 151.129 42.362 151.208 41.784C151.299 41.206 151.344 40.594 151.344 39.948C151.344 39.3133 151.299 38.724 151.208 38.18C151.129 37.636 150.982 37.16 150.766 36.752C150.551 36.344 150.251 36.0267 149.865 35.8C149.48 35.5733 148.981 35.46 148.369 35.46H145.53V44.793ZM154.907 46V37.5H156.216V38.639C156.431 38.4917 156.703 38.333 157.032 38.163C157.36 37.9817 157.723 37.8117 158.12 37.653C158.516 37.4943 158.913 37.381 159.31 37.313V38.656C158.924 38.7353 158.533 38.843 158.137 38.979C157.74 39.1037 157.372 39.2397 157.032 39.387C156.703 39.5343 156.431 39.6647 156.216 39.778V46H154.907ZM160.8 46V37.5H162.109V46H160.8ZM160.8 35.63V34.1H162.109V35.63H160.8ZM164.552 46V37.5H165.861V38.095C166.054 37.9817 166.292 37.8683 166.575 37.755C166.87 37.6417 167.181 37.5453 167.51 37.466C167.839 37.3753 168.156 37.33 168.462 37.33C169.244 37.33 169.839 37.4717 170.247 37.755C170.666 38.027 170.955 38.469 171.114 39.081C171.273 39.693 171.352 40.4977 171.352 41.495V46H170.026V41.546C170.026 40.8093 169.981 40.22 169.89 39.778C169.811 39.336 169.641 39.0187 169.38 38.826C169.131 38.622 168.745 38.52 168.224 38.52C167.941 38.52 167.646 38.554 167.34 38.622C167.045 38.6787 166.768 38.758 166.507 38.86C166.246 38.9507 166.031 39.0413 165.861 39.132V46H164.552ZM173.7 46V33.811H175.009V40.985L176.318 40.934L178.698 37.5H180.211L177.474 41.427L180.347 46H178.834L176.352 42.09L175.009 42.158V46H173.7Z" fill="#3AAA35"/>
<path d="M78.456 22V4.32H90.52V7.674H82.564V11.392H88.96V14.72H82.564V18.62H90.52V22H78.456ZM96.2083 22.312C94.787 22.312 93.721 21.9653 93.0103 21.272C92.317 20.5787 91.9703 19.5213 91.9703 18.1C91.9703 17.0947 92.1523 16.3233 92.5163 15.786C92.8976 15.2313 93.4436 14.8327 94.1543 14.59C94.865 14.3473 95.723 14.2 96.7283 14.148L99.6403 13.914V13.238C99.6403 12.718 99.493 12.354 99.1983 12.146C98.921 11.9207 98.505 11.808 97.9503 11.808C97.4476 11.808 96.8756 11.8253 96.2343 11.86C95.593 11.8947 94.9603 11.938 94.3363 11.99C93.7123 12.042 93.175 12.094 92.7243 12.146L92.5943 9.39C93.0623 9.26867 93.617 9.156 94.2583 9.052C94.917 8.93067 95.6016 8.83533 96.3123 8.766C97.023 8.67933 97.6903 8.636 98.3143 8.636C99.441 8.636 100.394 8.77467 101.174 9.052C101.972 9.312 102.578 9.76267 102.994 10.404C103.41 11.028 103.618 11.9033 103.618 13.03V18.75C103.67 18.958 103.792 19.1227 103.982 19.244C104.19 19.348 104.416 19.426 104.658 19.478L104.58 22.13C104.182 22.1647 103.757 22.1907 103.306 22.208C102.873 22.2253 102.526 22.2167 102.266 22.182C101.816 22.13 101.426 22.026 101.096 21.87C100.784 21.6967 100.55 21.5233 100.394 21.35C100.117 21.4713 99.753 21.61 99.3023 21.766C98.8516 21.922 98.3576 22.052 97.8203 22.156C97.3003 22.26 96.763 22.312 96.2083 22.312ZM97.1963 19.426C97.491 19.426 97.7856 19.3913 98.0803 19.322C98.3923 19.2527 98.687 19.1747 98.9643 19.088C99.2416 19.0013 99.467 18.9233 99.6403 18.854V16.28L97.3523 16.488C96.867 16.54 96.5116 16.696 96.2863 16.956C96.061 17.1987 95.9483 17.5453 95.9483 17.996C95.9483 18.4293 96.0523 18.776 96.2603 19.036C96.4683 19.296 96.7803 19.426 97.1963 19.426ZM112.361 27.902C110.975 27.902 109.796 27.798 108.825 27.59C107.855 27.3993 107.118 27.0353 106.615 26.498C106.13 25.9607 105.887 25.1807 105.887 24.158C105.887 23.7073 105.948 23.3087 106.069 22.962C106.191 22.6153 106.39 22.286 106.667 21.974C106.945 21.6447 107.3 21.3153 107.733 20.986C107.491 20.7953 107.291 20.5353 107.135 20.206C106.979 19.8593 106.901 19.4867 106.901 19.088C106.901 18.88 107.031 18.5767 107.291 18.178C107.569 17.7793 107.846 17.4327 108.123 17.138C107.777 16.9647 107.447 16.7307 107.135 16.436C106.823 16.124 106.563 15.708 106.355 15.188C106.147 14.668 106.043 14.0093 106.043 13.212C106.043 11.5307 106.52 10.352 107.473 9.676C108.427 8.98267 109.839 8.636 111.711 8.636C112.145 8.636 112.621 8.67067 113.141 8.74C113.679 8.792 114.103 8.86133 114.415 8.948L118.757 8.844V11.444L116.937 11.418C117.093 11.6087 117.223 11.8513 117.327 12.146C117.431 12.4407 117.483 12.796 117.483 13.212C117.483 14.4253 117.275 15.3613 116.859 16.02C116.443 16.6787 115.819 17.138 114.987 17.398C114.155 17.6407 113.089 17.762 111.789 17.762C111.651 17.762 111.469 17.7533 111.243 17.736C111.018 17.7013 110.827 17.6753 110.671 17.658C110.619 17.7967 110.559 17.9613 110.489 18.152C110.42 18.3253 110.385 18.4553 110.385 18.542C110.385 18.7327 110.463 18.88 110.619 18.984C110.775 19.088 111.087 19.1573 111.555 19.192C112.023 19.2267 112.725 19.244 113.661 19.244C114.892 19.244 115.871 19.3653 116.599 19.608C117.327 19.8333 117.847 20.2407 118.159 20.83C118.471 21.402 118.627 22.208 118.627 23.248C118.627 24.808 118.073 25.9693 116.963 26.732C115.854 27.512 114.32 27.902 112.361 27.902ZM112.127 25.016C113.133 25.016 113.852 24.912 114.285 24.704C114.719 24.496 114.935 24.1493 114.935 23.664C114.935 23.3 114.857 23.0227 114.701 22.832C114.545 22.6587 114.285 22.546 113.921 22.494C113.575 22.442 113.098 22.416 112.491 22.416C112.318 22.416 112.11 22.4073 111.867 22.39C111.625 22.39 111.391 22.3813 111.165 22.364C110.94 22.364 110.732 22.3553 110.541 22.338C110.351 22.338 110.212 22.3293 110.125 22.312C109.796 22.5373 109.571 22.7453 109.449 22.936C109.345 23.1267 109.293 23.378 109.293 23.69C109.293 24.0193 109.38 24.2793 109.553 24.47C109.744 24.6607 110.047 24.7993 110.463 24.886C110.879 24.9727 111.434 25.016 112.127 25.016ZM111.737 15.032C112.431 15.032 112.925 14.8933 113.219 14.616C113.531 14.3213 113.687 13.8447 113.687 13.186C113.687 12.5273 113.531 12.0593 113.219 11.782C112.925 11.4873 112.431 11.34 111.737 11.34C111.061 11.34 110.576 11.4873 110.281 11.782C109.987 12.0593 109.839 12.5273 109.839 13.186C109.839 13.8447 109.987 14.3213 110.281 14.616C110.576 14.8933 111.061 15.032 111.737 15.032ZM120.475 22V3.722H124.453V22H120.475ZM132.587 22.312C131.113 22.312 129.935 22.0693 129.051 21.584C128.184 21.0987 127.56 20.362 127.179 19.374C126.815 18.386 126.633 17.138 126.633 15.63C126.633 14.0527 126.858 12.7527 127.309 11.73C127.777 10.69 128.461 9.91867 129.363 9.416C130.264 8.896 131.399 8.636 132.769 8.636C134.779 8.636 136.287 9.12133 137.293 10.092C138.315 11.0627 138.827 12.5967 138.827 14.694L138.619 16.748H130.611C130.628 17.58 130.801 18.204 131.131 18.62C131.477 19.0187 132.067 19.218 132.899 19.218C133.436 19.218 134.034 19.2093 134.693 19.192C135.369 19.1573 136.036 19.1227 136.695 19.088C137.353 19.0533 137.917 19.0187 138.385 18.984L138.463 21.688C138.012 21.7747 137.449 21.87 136.773 21.974C136.097 22.0607 135.395 22.1387 134.667 22.208C133.939 22.2773 133.245 22.312 132.587 22.312ZM130.585 14.33H134.849C134.849 13.29 134.684 12.5707 134.355 12.172C134.025 11.756 133.497 11.548 132.769 11.548C132.041 11.548 131.495 11.7647 131.131 12.198C130.784 12.614 130.602 13.3247 130.585 14.33ZM145.777 22.312C145.135 22.312 144.477 22.2773 143.801 22.208C143.125 22.1387 142.501 22.0607 141.929 21.974C141.357 21.87 140.88 21.7747 140.499 21.688L140.629 18.828C141.079 18.88 141.591 18.9407 142.163 19.01C142.735 19.0793 143.298 19.14 143.853 19.192C144.407 19.244 144.858 19.27 145.205 19.27C145.673 19.27 146.054 19.2353 146.349 19.166C146.643 19.0967 146.86 18.9753 146.999 18.802C147.155 18.6287 147.233 18.386 147.233 18.074C147.233 17.8487 147.155 17.6667 146.999 17.528C146.86 17.3893 146.6 17.2767 146.219 17.19C145.855 17.086 145.309 16.982 144.581 16.878C143.61 16.7393 142.813 16.54 142.189 16.28C141.565 16.0027 141.105 15.604 140.811 15.084C140.533 14.5467 140.395 13.836 140.395 12.952C140.395 11.8253 140.629 10.95 141.097 10.326C141.582 9.702 142.223 9.26867 143.021 9.026C143.818 8.766 144.693 8.636 145.647 8.636C146.305 8.636 146.964 8.67067 147.623 8.74C148.299 8.792 148.923 8.86133 149.495 8.948C150.067 9.03467 150.543 9.12133 150.925 9.208L150.795 12.172C150.361 12.1027 149.85 12.042 149.261 11.99C148.689 11.9207 148.117 11.8687 147.545 11.834C146.99 11.7993 146.522 11.782 146.141 11.782C145.777 11.782 145.456 11.8167 145.179 11.886C144.919 11.938 144.719 12.042 144.581 12.198C144.442 12.3367 144.373 12.5447 144.373 12.822C144.373 13.03 144.433 13.2033 144.555 13.342C144.676 13.4633 144.919 13.576 145.283 13.68C145.647 13.7667 146.175 13.8533 146.869 13.94C147.926 14.0787 148.775 14.2953 149.417 14.59C150.058 14.8847 150.517 15.3007 150.795 15.838C151.072 16.358 151.211 17.0687 151.211 17.97C151.211 19.5647 150.743 20.6913 149.807 21.35C148.871 21.9913 147.527 22.312 145.777 22.312Z" fill="white"/>
<path fill-rule="evenodd" clip-rule="evenodd" d="M36.7612 38.1129V52.9999H32.4978V38.1129H36.7612ZM28.6115 34.1445V52.9999H10.1398V34.1445H28.6115ZM24.7325 38.1041H14.0189V49.0401H24.7325V38.1041ZM36.7612 25.8238V34.1445H32.4978V25.8238H36.7612ZM47.9016 25.8238V30.1761H40.6512V25.8238H47.9016ZM59.1229 25.8238V30.1761H51.7892V25.8238H59.1229ZM28.6117 25.8238V30.1761H10.1398V25.8238H28.6117ZM59.1229 3V21.8554H40.6512V3H59.1229ZM28.6117 3V21.8554H10.1398V3H28.6117ZM36.7612 13.6421V21.8554H32.4978V13.6421H36.7612ZM55.2437 6.95979H44.5302V17.8958H55.2437V6.95979ZM24.7325 6.95979H14.0189V17.8958H24.7325V6.95979ZM36.7612 3V9.67367H32.4978V3H36.7612Z" fill="url(#paint0_linear_11_2)"/>
<path fill-rule="evenodd" clip-rule="evenodd" d="M69.1508 26.4853C66.4522 29.2975 61.1298 34.2674 53.9801 38.1595C53.7132 38.3048 53.7194 38.6976 53.9898 38.8358C57.6287 40.6933 59.7959 43.7017 59.8911 47.9756C59.9578 50.9658 58.1614 52.9416 55.493 52.9987C53.078 53.0504 51.7092 51.3931 51.6726 48.2551C51.6443 45.8165 50.7971 43.7065 49.4338 41.7568C49.0816 41.253 48.7306 40.9627 48.2877 40.8796C48.2241 40.8678 48.1585 40.8771 48.0981 40.9007C35.1886 45.9123 18.0958 45.9923 0.116305 27.742C-0.197368 27.4236 0.181257 26.9074 0.567276 27.1277C8.99368 31.9361 37.6422 45.2935 68.6819 25.8848C69.0621 25.6471 69.4629 26.1601 69.1508 26.4853ZM50.1253 38.9411L50.0845 38.9409C50.0097 38.9418 49.9338 38.9461 49.8576 38.9515C49.8389 38.9527 49.8202 38.9533 49.8014 38.9549C49.7294 38.961 49.6562 38.9703 49.583 38.9804C49.5599 38.9836 49.5372 38.9856 49.514 38.9892C49.4414 39.0003 49.3677 39.0147 49.2938 39.0298C49.27 39.0347 49.2466 39.0381 49.2227 39.0435C49.1251 39.0647 49.0269 39.0891 48.9273 39.1173C49.0324 39.1491 49.1346 39.1829 49.2346 39.2183L49.2806 39.2355C49.3666 39.2666 49.4513 39.2988 49.5339 39.3324C49.5416 39.3356 49.549 39.339 49.5567 39.3421C49.647 39.3793 49.7352 39.4181 49.8215 39.4582C49.822 39.4585 49.8227 39.4587 49.8232 39.4591C51.4823 40.2322 52.4128 41.5362 53.2621 42.8679L53.578 43.3676C53.8927 43.8667 54.2073 44.3608 54.556 44.8234C54.2148 41.7297 52.9934 39.6353 51.1522 39.085C51.0698 39.0604 50.9864 39.039 50.9016 39.0205C50.9001 39.0203 50.8987 39.0199 50.8973 39.0196C50.815 39.0018 50.7315 38.9872 50.6469 38.9752C50.6425 38.9747 50.6379 38.9739 50.6333 38.9732C50.5527 38.9623 50.471 38.9544 50.3885 38.949C50.3795 38.9482 50.3707 38.9475 50.3619 38.947C50.2841 38.9423 50.205 38.9408 50.1253 38.9411ZM52.898 9.35439V15.5012H46.8762V9.35439H52.898ZM22.3867 9.35439V15.5012H16.3649V9.35439H22.3867Z" fill="#3AAA35"/>
<defs>
<linearGradient id="paint0_linear_11_2" x1="35" y1="2.99992" x2="34.6314" y2="52.0209" gradientUnits="userSpaceOnUse">
<stop stop-color="white"/>
<stop offset="0.576042" stop-color="#F1F1F1"/>
<stop offset="1" stop-color="#3AAA35"/>
</linearGradient>
</defs>
</svg>
